{
  "parent": "geometry_craft:block/jump_pad_template",
  "textures": {
    "particle": "geometry_craft:block/teleport_pad_top",
    "top": "geometry_craft:block/teleport_pad_top",
    "side": "geometry_craft:block/teleport_pad_top"
  }
}
